<?xml version="1.0" encoding="UTF-8"?>
<testng-results ignored="0" total="7" passed="6" failed="1" skipped="0">
  <reporter-output>
  </reporter-output>
  <suite started-at="2021-04-29T22:35:21 GMT-07:00" name="Command line suite" finished-at="2021-04-29T22:35:21 GMT-07:00" duration-ms="83">
    <groups>
    </groups>
    <test started-at="2021-04-29T22:35:21 GMT-07:00" name="Command line test" finished-at="2021-04-29T22:35:21 GMT-07:00" duration-ms="83">
      <class name="TestNG_Params.Env_Test">
        <test-method signature="method1(java.lang.String)[pri:0, instance:TestNG_Params.Env_Test@647e447]" started-at="2021-04-29T22:35:21 GMT-07:00" name="method1" finished-at="2021-04-29T22:35:21 GMT-07:00" duration-ms="0" status="FAIL">
          <exception class="org.testng.TestNGException">
            <message>
              <![CDATA[
Parameter 'env' is required by @Test on method method1 but has not been marked @Optional or defined
]]>
            </message>
            <full-stacktrace>
              <![CDATA[org.testng.TestNGException: 
Parameter 'env' is required by @Test on method method1 but has not been marked @Optional or defined

at org.testng.internal.Parameters.createParams(Parameters.java:272)
at org.testng.internal.Parameters.createParametersForMethod(Parameters.java:360)
at org.testng.internal.Parameters.createParameters(Parameters.java:704)
at org.testng.internal.Parameters.handleParameters(Parameters.java:879)
at org.testng.internal.Parameters.handleParameters(Parameters.java:744)
at org.testng.internal.ParameterHandler.handleParameters(ParameterHandler.java:59)
at org.testng.internal.ParameterHandler.createParameters(ParameterHandler.java:38)
at org.testng.internal.TestInvoker$MethodInvocationAgent.invoke(TestInvoker.java:783)
at org.testng.internal.TestInvoker.invokeTestMethods(TestInvoker.java:146)
at org.testng.internal.TestMethodWorker.invokeTestMethods(TestMethodWorker.java:146)
at org.testng.internal.TestMethodWorker.run(TestMethodWorker.java:128)
at java.base/java.util.ArrayList.forEach(ArrayList.java:1541)
at org.testng.TestRunner.privateRun(TestRunner.java:766)
at org.testng.TestRunner.run(TestRunner.java:587)
at org.testng.SuiteRunner.runTest(SuiteRunner.java:384)
at org.testng.SuiteRunner.runSequentially(SuiteRunner.java:378)
at org.testng.SuiteRunner.privateRun(SuiteRunner.java:337)
at org.testng.SuiteRunner.run(SuiteRunner.java:286)
at org.testng.SuiteRunnerWorker.runSuite(SuiteRunnerWorker.java:53)
at org.testng.SuiteRunnerWorker.run(SuiteRunnerWorker.java:96)
at org.testng.TestNG.runSuitesSequentially(TestNG.java:1187)
at org.testng.TestNG.runSuitesLocally(TestNG.java:1109)
at org.testng.TestNG.runSuites(TestNG.java:1039)
at org.testng.TestNG.run(TestNG.java:1007)
at org.apache.maven.surefire.testng.TestNGExecutor.run(TestNGExecutor.java:77)
at org.apache.maven.surefire.testng.TestNGDirectoryTestSuite.executeMulti(TestNGDirectoryTestSuite.java:159)
at org.apache.maven.surefire.testng.TestNGDirectoryTestSuite.execute(TestNGDirectoryTestSuite.java:99)
at org.apache.maven.surefire.testng.TestNGProvider.invoke(TestNGProvider.java:106)
at java.base/jdk.internal.reflect.NativeMethodAccessorImpl.invoke0(Native Method)
at java.base/jdk.internal.reflect.NativeMethodAccessorImpl.invoke(NativeMethodAccessorImpl.java:62)
at java.base/jdk.internal.reflect.DelegatingMethodAccessorImpl.invoke(DelegatingMethodAccessorImpl.java:43)
at java.base/java.lang.reflect.Method.invoke(Method.java:566)
at org.apache.maven.surefire.util.ReflectionUtils.invokeMethodWithArray(ReflectionUtils.java:189)
at org.apache.maven.surefire.booter.ProviderFactory$ProviderProxy.invoke(ProviderFactory.java:165)
at org.apache.maven.surefire.booter.ProviderFactory.invokeProvider(ProviderFactory.java:85)
at org.apache.maven.surefire.booter.ForkedBooter.runSuitesInProcess(ForkedBooter.java:115)
at org.apache.maven.surefire.booter.ForkedBooter.main(ForkedBooter.java:75)
]]>
            </full-stacktrace>
          </exception> <!-- org.testng.TestNGException -->
          <reporter-output>
          </reporter-output>
        </test-method> <!-- method1 -->
      </class> <!-- TestNG_Params.Env_Test -->
      <class name="SeleniumJava.MavenJava.SeleniumtestTest">
        <test-method signature="test3()[pri:0, instance:SeleniumJava.MavenJava.SeleniumtestTest@28eaa59a]" started-at="2021-04-29T22:35:21 GMT-07:00" name="test3" finished-at="2021-04-29T22:35:21 GMT-07:00" duration-ms="0" status="PASS">
          <reporter-output>
          </reporter-output>
        </test-method> <!-- test3 -->
        <test-method signature="test4()[pri:0, instance:SeleniumJava.MavenJava.SeleniumtestTest@28eaa59a]" started-at="2021-04-29T22:35:21 GMT-07:00" name="test4" finished-at="2021-04-29T22:35:21 GMT-07:00" duration-ms="0" status="PASS">
          <reporter-output>
          </reporter-output>
        </test-method> <!-- test4 -->
      </class> <!-- SeleniumJava.MavenJava.SeleniumtestTest -->
      <class name="SeleniumJava.MavenJava.RestAPITest">
        <test-method signature="test1()[pri:0, instance:SeleniumJava.MavenJava.RestAPITest@7ed7259e]" started-at="2021-04-29T22:35:21 GMT-07:00" name="test1" finished-at="2021-04-29T22:35:21 GMT-07:00" duration-ms="7" status="PASS">
          <reporter-output>
          </reporter-output>
        </test-method> <!-- test1 -->
        <test-method signature="test2()[pri:0, instance:SeleniumJava.MavenJava.RestAPITest@7ed7259e]" started-at="2021-04-29T22:35:21 GMT-07:00" name="test2" finished-at="2021-04-29T22:35:21 GMT-07:00" duration-ms="0" status="PASS">
          <reporter-output>
          </reporter-output>
        </test-method> <!-- test2 -->
      </class> <!-- SeleniumJava.MavenJava.RestAPITest -->
      <class name="SeleniumJava.MavenJava.TestNgTest">
        <test-method signature="test5()[pri:0, instance:SeleniumJava.MavenJava.TestNgTest@3427b02d]" started-at="2021-04-29T22:35:21 GMT-07:00" name="test5" finished-at="2021-04-29T22:35:21 GMT-07:00" duration-ms="0" status="PASS">
          <reporter-output>
          </reporter-output>
        </test-method> <!-- test5 -->
        <test-method signature="test6()[pri:0, instance:SeleniumJava.MavenJava.TestNgTest@3427b02d]" started-at="2021-04-29T22:35:21 GMT-07:00" name="test6" finished-at="2021-04-29T22:35:21 GMT-07:00" duration-ms="0" status="PASS">
          <reporter-output>
          </reporter-output>
        </test-method> <!-- test6 -->
      </class> <!-- SeleniumJava.MavenJava.TestNgTest -->
    </test> <!-- Command line test -->
  </suite> <!-- Command line suite -->
</testng-results>
