<?xml version="1.0" encoding="UTF-8"?>
<!DOCTYPE suite SYSTEM "https://testng.org/testng-1.0.dtd">
<suite name="Failed suite [Command line suite]" verbose="0">
  <test thread-count="5" name="Command line test(failed)" verbose="0">
    <classes>
      <class name="TestNG_Params.Env_Test">
        <methods>
          <include name="method1"/>
        </methods>
      </class> <!-- TestNG_Params.Env_Test -->
    </classes>
  </test> <!-- Command line test(failed) -->
</suite> <!-- Failed suite [Command line suite] -->
